{
    "_id": "1", 
    "attrs": {
        "IvFile": [
            {
                "value": {
                    "typeName": "::memoryx::MongoDBRefBase", 
                    "value": {
                        "dbName": "memdb", 
                        "docId": "55032ba8791f1d42b75f45d3"
                    }
                }
            }
        ], 
        "IvFileCollision": [
            {
                "value": {
                    "typeName": "::memoryx::MongoDBRefBase", 
                    "value": {
                        "dbName": "memdb", 
                        "docId": "55032ba8791f1d42b75f45d3"
                    }
                }
            }
        ], 
        "ManipulationFile": [
            {
                "value": {
                    "typeName": "::memoryx::MongoDBRefBase", 
                    "value": {
                        "dbName": "memdb", 
                        "docId": "550333707a350e8553dcc661"
                    }
                }
            }
        ], 
        "classes": [
            {
                "uncertainty": {
                    "typeName": "::memoryx::DiscreteProbabilityBase", 
                    "value": {
                        "prob": 1
                    }
                }, 
                "value": {
                    "typeName": "::armarx::StringVariantData", 
                    "value": "controltable"
                }
            }
        ], 
        "defaultMotionModel": [
            {
                "value": {
                    "typeName": "::armarx::StringVariantData", 
                    "value": "Static"
                }
            }
        ], 
        "existenceCertainty": [
            {
                "value": {
                    "typeName": "::armarx::FloatVariantData", 
                    "value": 1
                }
            }
        ], 
        "orientation": [
            {
                "value": {
                    "typeName": "::armarx::FramedOrientationBase", 
                    "value": {
                        "agent": "", 
                        "frame": "", 
                        "qw": 0, 
                        "qx": 0, 
                        "qy": 0, 
                        "qz": 0
                    }
                }
            }
        ], 
        "parentClasses": [
            {
                "value": {
                    "typeName": "::armarx::StringVariantData", 
                    "value": ""
                }
            }
        ], 
        "position": [
            {
                "value": {
                    "typeName": "::armarx::FramedPositionBase", 
                    "value": {
                        "agent": "", 
                        "frame": "", 
                        "x": 0, 
                        "y": 0, 
                        "z": 0
                    }
                }
            }
        ], 
        "recognitionMethod": [
            {
                "value": {
                    "typeName": "::armarx::StringVariantData", 
                    "value": "<none>"
                }
            }
        ]
    }, 
    "name": "controltable", 
    "type": "::memoryx::ObjectInstanceBase"
}
{
    "_id": "10", 
    "attrs": {
        "IvFile": [
            {
                "value": {
                    "typeName": "::memoryx::MongoDBRefBase", 
                    "value": {
                        "dbName": "memdb", 
                        "docId": "55032e5d1e59ab8882380c2a"
                    }
                }
            }
        ], 
        "IvFileCollision": [
            {
                "value": {
                    "typeName": "::memoryx::MongoDBRefBase", 
                    "value": {
                        "dbName": "memdb", 
                        "docId": "55032e5d1e59ab8882380c2a"
                    }
                }
            }
        ], 
        "ManipulationFile": [
            {
                "value": {
                    "typeName": "::memoryx::MongoDBRefBase", 
                    "value": {
                        "dbName": "memdb", 
                        "docId": "550333c27a350e8553dcc66a"
                    }
                }
            }
        ], 
        "classes": [
            {
                "uncertainty": {
                    "typeName": "::memoryx::DiscreteProbabilityBase", 
                    "value": {
                        "prob": 1
                    }
                }, 
                "value": {
                    "typeName": "::armarx::StringVariantData", 
                    "value": "uppersideboard"
                }
            }
        ], 
        "defaultMotionModel": [
            {
                "value": {
                    "typeName": "::armarx::StringVariantData", 
                    "value": "Static"
                }
            }
        ], 
        "existenceCertainty": [
            {
                "value": {
                    "typeName": "::armarx::FloatVariantData", 
                    "value": 1
                }
            }
        ], 
        "orientation": [
            {
                "value": {
                    "typeName": "::armarx::FramedOrientationBase", 
                    "value": {
                        "agent": "", 
                        "frame": "", 
                        "qw": 0, 
                        "qx": 0, 
                        "qy": 0, 
                        "qz": 0
                    }
                }
            }
        ], 
        "parentClasses": [
            {
                "value": {
                    "typeName": "::armarx::StringVariantData", 
                    "value": ""
                }
            }
        ], 
        "position": [
            {
                "value": {
                    "typeName": "::armarx::FramedPositionBase", 
                    "value": {
                        "agent": "", 
                        "frame": "", 
                        "x": 0, 
                        "y": 0, 
                        "z": 0
                    }
                }
            }
        ], 
        "recognitionMethod": [
            {
                "value": {
                    "typeName": "::armarx::StringVariantData", 
                    "value": "<none>"
                }
            }
        ]
    }, 
    "name": "uppersideboard", 
    "type": "::memoryx::ObjectInstanceBase"
}
{
    "_id": "11", 
    "attrs": {
        "IvFile": [
            {
                "value": {
                    "typeName": "::memoryx::MongoDBRefBase", 
                    "value": {
                        "dbName": "memdb", 
                        "docId": "55032e6a1e59ab8882380c2d"
                    }
                }
            }
        ], 
        "IvFileCollision": [
            {
                "value": {
                    "typeName": "::memoryx::MongoDBRefBase", 
                    "value": {
                        "dbName": "memdb", 
                        "docId": "55032e6a1e59ab8882380c2d"
                    }
                }
            }
        ], 
        "ManipulationFile": [
            {
                "value": {
                    "typeName": "::memoryx::MongoDBRefBase", 
                    "value": {
                        "dbName": "memdb", 
                        "docId": "550333c67a350e8553dcc66b"
                    }
                }
            }
        ], 
        "classes": [
            {
                "uncertainty": {
                    "typeName": "::memoryx::DiscreteProbabilityBase", 
                    "value": {
                        "prob": 1
                    }
                }, 
                "value": {
                    "typeName": "::armarx::StringVariantData", 
                    "value": "uppersink"
                }
            }
        ], 
        "defaultMotionModel": [
            {
                "value": {
                    "typeName": "::armarx::StringVariantData", 
                    "value": "Static"
                }
            }
        ], 
        "existenceCertainty": [
            {
                "value": {
                    "typeName": "::armarx::FloatVariantData", 
                    "value": 1
                }
            }
        ], 
        "orientation": [
            {
                "value": {
                    "typeName": "::armarx::FramedOrientationBase", 
                    "value": {
                        "agent": "", 
                        "frame": "", 
                        "qw": 0, 
                        "qx": 0, 
                        "qy": 0, 
                        "qz": 0
                    }
                }
            }
        ], 
        "parentClasses": [
            {
                "value": {
                    "typeName": "::armarx::StringVariantData", 
                    "value": ""
                }
            }
        ], 
        "position": [
            {
                "value": {
                    "typeName": "::armarx::FramedPositionBase", 
                    "value": {
                        "agent": "", 
                        "frame": "", 
                        "x": 0, 
                        "y": 0, 
                        "z": 0
                    }
                }
            }
        ], 
        "recognitionMethod": [
            {
                "value": {
                    "typeName": "::armarx::StringVariantData", 
                    "value": "<none>"
                }
            }
        ]
    }, 
    "name": "uppersink", 
    "type": "::memoryx::ObjectInstanceBase"
}
{
    "_id": "12", 
    "attrs": {
        "IvFile": [
            {
                "value": {
                    "typeName": "::memoryx::MongoDBRefBase", 
                    "value": {
                        "dbName": "memdb", 
                        "docId": "55032e7a1e59ab8882380c30"
                    }
                }
            }
        ], 
        "IvFileCollision": [
            {
                "value": {
                    "typeName": "::memoryx::MongoDBRefBase", 
                    "value": {
                        "dbName": "memdb", 
                        "docId": "55032e7a1e59ab8882380c30"
                    }
                }
            }
        ], 
        "ManipulationFile": [
            {
                "value": {
                    "typeName": "::memoryx::MongoDBRefBase", 
                    "value": {
                        "dbName": "memdb", 
                        "docId": "550333d37a350e8553dcc66d"
                    }
                }
            }
        ], 
        "classes": [
            {
                "uncertainty": {
                    "typeName": "::memoryx::DiscreteProbabilityBase", 
                    "value": {
                        "prob": 1
                    }
                }, 
                "value": {
                    "typeName": "::armarx::StringVariantData", 
                    "value": "wallsink"
                }
            }
        ], 
        "defaultMotionModel": [
            {
                "value": {
                    "typeName": "::armarx::StringVariantData", 
                    "value": "Static"
                }
            }
        ], 
        "existenceCertainty": [
            {
                "value": {
                    "typeName": "::armarx::FloatVariantData", 
                    "value": 1
                }
            }
        ], 
        "orientation": [
            {
                "value": {
                    "typeName": "::armarx::FramedOrientationBase", 
                    "value": {
                        "agent": "", 
                        "frame": "", 
                        "qw": 0, 
                        "qx": 0, 
                        "qy": 0, 
                        "qz": 0
                    }
                }
            }
        ], 
        "parentClasses": [
            {
                "value": {
                    "typeName": "::armarx::StringVariantData", 
                    "value": ""
                }
            }
        ], 
        "position": [
            {
                "value": {
                    "typeName": "::armarx::FramedPositionBase", 
                    "value": {
                        "agent": "", 
                        "frame": "", 
                        "x": 0, 
                        "y": 0, 
                        "z": 0
                    }
                }
            }
        ], 
        "recognitionMethod": [
            {
                "value": {
                    "typeName": "::armarx::StringVariantData", 
                    "value": "<none>"
                }
            }
        ]
    }, 
    "name": "wallsink", 
    "type": "::memoryx::ObjectInstanceBase"
}
{
    "_id": "13", 
    "attrs": {
        "IvFile": [
            {
                "value": {
                    "typeName": "::memoryx::MongoDBRefBase", 
                    "value": {
                        "dbName": "memdb", 
                        "docId": "55032e891e59ab8882380c33"
                    }
                }
            }
        ], 
        "IvFileCollision": [
            {
                "value": {
                    "typeName": "::memoryx::MongoDBRefBase", 
                    "value": {
                        "dbName": "memdb", 
                        "docId": "55032e891e59ab8882380c33"
                    }
                }
            }
        ], 
        "ManipulationFile": [
            {
                "value": {
                    "typeName": "::memoryx::MongoDBRefBase", 
                    "value": {
                        "dbName": "memdb", 
                        "docId": "550333cf7a350e8553dcc66c"
                    }
                }
            }
        ], 
        "classes": [
            {
                "uncertainty": {
                    "typeName": "::memoryx::DiscreteProbabilityBase", 
                    "value": {
                        "prob": 1
                    }
                }, 
                "value": {
                    "typeName": "::armarx::StringVariantData", 
                    "value": "windows"
                }
            }
        ], 
        "defaultMotionModel": [
            {
                "value": {
                    "typeName": "::armarx::StringVariantData", 
                    "value": "Static"
                }
            }
        ], 
        "existenceCertainty": [
            {
                "value": {
                    "typeName": "::armarx::FloatVariantData", 
                    "value": 1
                }
            }
        ], 
        "orientation": [
            {
                "value": {
                    "typeName": "::armarx::FramedOrientationBase", 
                    "value": {
                        "agent": "", 
                        "frame": "", 
                        "qw": 0, 
                        "qx": 0, 
                        "qy": 0, 
                        "qz": 0
                    }
                }
            }
        ], 
        "parentClasses": [
            {
                "value": {
                    "typeName": "::armarx::StringVariantData", 
                    "value": ""
                }
            }
        ], 
        "position": [
            {
                "value": {
                    "typeName": "::armarx::FramedPositionBase", 
                    "value": {
                        "agent": "", 
                        "frame": "", 
                        "x": 0, 
                        "y": 0, 
                        "z": 0
                    }
                }
            }
        ], 
        "recognitionMethod": [
            {
                "value": {
                    "typeName": "::armarx::StringVariantData", 
                    "value": "<none>"
                }
            }
        ]
    }, 
    "name": "windows", 
    "type": "::memoryx::ObjectInstanceBase"
}
{
    "_id": "2", 
    "attrs": {
        "IvFile": [
            {
                "value": {
                    "typeName": "::memoryx::MongoDBRefBase", 
                    "value": {
                        "dbName": "memdb", 
                        "docId": "55032d17791f1d42b75f45d6"
                    }
                }
            }
        ], 
        "IvFileCollision": [
            {
                "value": {
                    "typeName": "::memoryx::MongoDBRefBase", 
                    "value": {
                        "dbName": "memdb", 
                        "docId": "55032d17791f1d42b75f45d6"
                    }
                }
            }
        ], 
        "ManipulationFile": [
            {
                "value": {
                    "typeName": "::memoryx::MongoDBRefBase", 
                    "value": {
                        "dbName": "memdb", 
                        "docId": "5503337a7a350e8553dcc662"
                    }
                }
            }
        ], 
        "classes": [
            {
                "uncertainty": {
                    "typeName": "::memoryx::DiscreteProbabilityBase", 
                    "value": {
                        "prob": 1
                    }
                }, 
                "value": {
                    "typeName": "::armarx::StringVariantData", 
                    "value": "dishwasher"
                }
            }
        ], 
        "defaultMotionModel": [
            {
                "value": {
                    "typeName": "::armarx::StringVariantData", 
                    "value": "Static"
                }
            }
        ], 
        "existenceCertainty": [
            {
                "value": {
                    "typeName": "::armarx::FloatVariantData", 
                    "value": 1
                }
            }
        ], 
        "orientation": [
            {
                "value": {
                    "typeName": "::armarx::FramedOrientationBase", 
                    "value": {
                        "agent": "", 
                        "frame": "", 
                        "qw": 0, 
                        "qx": 0, 
                        "qy": 0, 
                        "qz": 0
                    }
                }
            }
        ], 
        "parentClasses": [
            {
                "value": {
                    "typeName": "::armarx::StringVariantData", 
                    "value": ""
                }
            }
        ], 
        "position": [
            {
                "value": {
                    "typeName": "::armarx::FramedPositionBase", 
                    "value": {
                        "agent": "", 
                        "frame": "", 
                        "x": 0, 
                        "y": 0, 
                        "z": 0
                    }
                }
            }
        ], 
        "recognitionMethod": [
            {
                "value": {
                    "typeName": "::armarx::StringVariantData", 
                    "value": "<none>"
                }
            }
        ]
    }, 
    "name": "dishwasher", 
    "type": "::memoryx::ObjectInstanceBase"
}
{
    "_id": "3", 
    "attrs": {
        "IvFile": [
            {
                "value": {
                    "typeName": "::memoryx::MongoDBRefBase", 
                    "value": {
                        "dbName": "memdb", 
                        "docId": "56716e58c0aa5d03d42e07c1"
                    }
                }
            }
        ], 
        "IvFileCollision": [
            {
                "value": {
                    "typeName": "::memoryx::MongoDBRefBase", 
                    "value": {
                        "dbName": "memdb", 
                        "docId": "56716e58c0aa5d03d42e07c1"
                    }
                }
            }
        ], 
        "ManipulationFile": [
            {
                "value": {
                    "typeName": "::memoryx::MongoDBRefBase", 
                    "value": {
                        "dbName": "memdb", 
                        "docId": "5503337f7a350e8553dcc663"
                    }
                }
            }
        ], 
        "classes": [
            {
                "uncertainty": {
                    "typeName": "::memoryx::DiscreteProbabilityBase", 
                    "value": {
                        "prob": 1
                    }
                }, 
                "value": {
                    "typeName": "::armarx::StringVariantData", 
                    "value": "fridge"
                }
            }
        ], 
        "defaultMotionModel": [
            {
                "value": {
                    "typeName": "::armarx::StringVariantData", 
                    "value": "Static"
                }
            }
        ], 
        "existenceCertainty": [
            {
                "value": {
                    "typeName": "::armarx::FloatVariantData", 
                    "value": 1
                }
            }
        ], 
        "orientation": [
            {
                "value": {
                    "typeName": "::armarx::FramedOrientationBase", 
                    "value": {
                        "agent": "", 
                        "frame": "", 
                        "qw": 0, 
                        "qx": 0, 
                        "qy": 0, 
                        "qz": 0
                    }
                }
            }
        ], 
        "parentClasses": [
            {
                "value": {
                    "typeName": "::armarx::StringVariantData", 
                    "value": ""
                }
            }
        ], 
        "position": [
            {
                "value": {
                    "typeName": "::armarx::FramedPositionBase", 
                    "value": {
                        "agent": "", 
                        "frame": "", 
                        "x": 0, 
                        "y": 0, 
                        "z": 0
                    }
                }
            }
        ], 
        "recognitionMethod": [
            {
                "value": {
                    "typeName": "::armarx::StringVariantData", 
                    "value": "<none>"
                }
            }
        ]
    }, 
    "name": "fridge", 
    "type": "::memoryx::ObjectInstanceBase"
}
{
    "_id": "4", 
    "attrs": {
        "IvFile": [
            {
                "value": {
                    "typeName": "::memoryx::MongoDBRefBase", 
                    "value": {
                        "dbName": "memdb", 
                        "docId": "55032d4a791f1d42b75f45dc"
                    }
                }
            }
        ], 
        "IvFileCollision": [
            {
                "value": {
                    "typeName": "::memoryx::MongoDBRefBase", 
                    "value": {
                        "dbName": "memdb", 
                        "docId": "55032d4a791f1d42b75f45dc"
                    }
                }
            }
        ], 
        "ManipulationFile": [
            {
                "value": {
                    "typeName": "::memoryx::MongoDBRefBase", 
                    "value": {
                        "dbName": "memdb", 
                        "docId": "550333897a350e8553dcc664"
                    }
                }
            }
        ], 
        "classes": [
            {
                "uncertainty": {
                    "typeName": "::memoryx::DiscreteProbabilityBase", 
                    "value": {
                        "prob": 1
                    }
                }, 
                "value": {
                    "typeName": "::armarx::StringVariantData", 
                    "value": "lowersideboard"
                }
            }
        ], 
        "defaultMotionModel": [
            {
                "value": {
                    "typeName": "::armarx::StringVariantData", 
                    "value": "Static"
                }
            }
        ], 
        "existenceCertainty": [
            {
                "value": {
                    "typeName": "::armarx::FloatVariantData", 
                    "value": 1
                }
            }
        ], 
        "orientation": [
            {
                "value": {
                    "typeName": "::armarx::FramedOrientationBase", 
                    "value": {
                        "agent": "", 
                        "frame": "", 
                        "qw": 0, 
                        "qx": 0, 
                        "qy": 0, 
                        "qz": 0
                    }
                }
            }
        ], 
        "parentClasses": [
            {
                "value": {
                    "typeName": "::armarx::StringVariantData", 
                    "value": ""
                }
            }
        ], 
        "position": [
            {
                "value": {
                    "typeName": "::armarx::FramedPositionBase", 
                    "value": {
                        "agent": "", 
                        "frame": "", 
                        "x": 0, 
                        "y": 0, 
                        "z": 0
                    }
                }
            }
        ], 
        "recognitionMethod": [
            {
                "value": {
                    "typeName": "::armarx::StringVariantData", 
                    "value": "<none>"
                }
            }
        ]
    }, 
    "name": "lowersideboard", 
    "type": "::memoryx::ObjectInstanceBase"
}
{
    "_id": "5", 
    "attrs": {
        "IvFile": [
            {
                "value": {
                    "typeName": "::memoryx::MongoDBRefBase", 
                    "value": {
                        "dbName": "memdb", 
                        "docId": "55032d6d791f1d42b75f45df"
                    }
                }
            }
        ], 
        "IvFileCollision": [
            {
                "value": {
                    "typeName": "::memoryx::MongoDBRefBase", 
                    "value": {
                        "dbName": "memdb", 
                        "docId": "55032d6d791f1d42b75f45df"
                    }
                }
            }
        ], 
        "ManipulationFile": [
            {
                "value": {
                    "typeName": "::memoryx::MongoDBRefBase", 
                    "value": {
                        "dbName": "memdb", 
                        "docId": "552bc251b9c64be0c9337691"
                    }
                }
            }
        ], 
        "classes": [
            {
                "uncertainty": {
                    "typeName": "::memoryx::DiscreteProbabilityBase", 
                    "value": {
                        "prob": 1
                    }
                }, 
                "value": {
                    "typeName": "::armarx::StringVariantData", 
                    "value": "lowersink"
                }
            }
        ], 
        "defaultMotionModel": [
            {
                "value": {
                    "typeName": "::armarx::StringVariantData", 
                    "value": "Static"
                }
            }
        ], 
        "existenceCertainty": [
            {
                "value": {
                    "typeName": "::armarx::FloatVariantData", 
                    "value": 1
                }
            }
        ], 
        "orientation": [
            {
                "value": {
                    "typeName": "::armarx::FramedOrientationBase", 
                    "value": {
                        "agent": "", 
                        "frame": "", 
                        "qw": 0, 
                        "qx": 0, 
                        "qy": 0, 
                        "qz": 0
                    }
                }
            }
        ], 
        "parentClasses": [
            {
                "value": {
                    "typeName": "::armarx::StringVariantData", 
                    "value": ""
                }
            }
        ], 
        "position": [
            {
                "value": {
                    "typeName": "::armarx::FramedPositionBase", 
                    "value": {
                        "agent": "", 
                        "frame": "", 
                        "x": 0, 
                        "y": 0, 
                        "z": 0
                    }
                }
            }
        ], 
        "recognitionMethod": [
            {
                "value": {
                    "typeName": "::armarx::StringVariantData", 
                    "value": "<none>"
                }
            }
        ]
    }, 
    "name": "lowersink", 
    "type": "::memoryx::ObjectInstanceBase"
}
{
    "_id": "6", 
    "attrs": {
        "IvFile": [
            {
                "value": {
                    "typeName": "::memoryx::MongoDBRefBase", 
                    "value": {
                        "dbName": "memdb", 
                        "docId": "55032e1b1e59ab8882380c1e"
                    }
                }
            }
        ], 
        "IvFileCollision": [
            {
                "value": {
                    "typeName": "::memoryx::MongoDBRefBase", 
                    "value": {
                        "dbName": "memdb", 
                        "docId": "55032e1b1e59ab8882380c1e"
                    }
                }
            }
        ], 
        "ManipulationFile": [
            {
                "value": {
                    "typeName": "::memoryx::MongoDBRefBase", 
                    "value": {
                        "dbName": "memdb", 
                        "docId": "5503339a7a350e8553dcc666"
                    }
                }
            }
        ], 
        "classes": [
            {
                "uncertainty": {
                    "typeName": "::memoryx::DiscreteProbabilityBase", 
                    "value": {
                        "prob": 1
                    }
                }, 
                "value": {
                    "typeName": "::armarx::StringVariantData", 
                    "value": "oven"
                }
            }
        ], 
        "defaultMotionModel": [
            {
                "value": {
                    "typeName": "::armarx::StringVariantData", 
                    "value": "Static"
                }
            }
        ], 
        "existenceCertainty": [
            {
                "value": {
                    "typeName": "::armarx::FloatVariantData", 
                    "value": 1
                }
            }
        ], 
        "orientation": [
            {
                "value": {
                    "typeName": "::armarx::FramedOrientationBase", 
                    "value": {
                        "agent": "", 
                        "frame": "", 
                        "qw": 0, 
                        "qx": 0, 
                        "qy": 0, 
                        "qz": 0
                    }
                }
            }
        ], 
        "parentClasses": [
            {
                "value": {
                    "typeName": "::armarx::StringVariantData", 
                    "value": ""
                }
            }
        ], 
        "position": [
            {
                "value": {
                    "typeName": "::armarx::FramedPositionBase", 
                    "value": {
                        "agent": "", 
                        "frame": "", 
                        "x": 0, 
                        "y": 0, 
                        "z": 0
                    }
                }
            }
        ], 
        "recognitionMethod": [
            {
                "value": {
                    "typeName": "::armarx::StringVariantData", 
                    "value": "<none>"
                }
            }
        ]
    }, 
    "name": "oven", 
    "type": "::memoryx::ObjectInstanceBase"
}
